addPSU SUB     /dev/serial/by-id/usb-FTDI_USB__-__Serial_Cable_FTXG6Y8T-if00-port0 m 2 45.1  0.02
addPSU PWELL   /dev/serial/by-id/usb-FTDI_USB__-__Serial_Cable_FTXG6Y8T-if00-port0 m 1  6.1  0.02

addPSU DVDD    /dev/serial/by-id/usb-FTDI_USB__-__Serial_Cable_FTXG6Y8T-if01-port0 m 1 1.85  0.100
addPSU AVDD    /dev/serial/by-id/usb-FTDI_USB__-__Serial_Cable_FTXG6Y8T-if01-port0 m 2 1.85  0.700




